…
# Summarize the result
summary(fit, parameter = "theta")
#> * Summarizing following parameters: theta
#> # A tibble: 7,581 × 4
#>    parameter index  reference estimate
#>    <chr>     <chr>  <chr>        <dbl>
#>  1 theta     [1,1]  [i,t]       -0.673
#>  2 theta     [1,2]  [i,t]       -0.769
#>  3 theta     [1,3]  [i,t]       -0.675
#>  4 theta     [1,4]  [i,t]       -0.670
#>  5 theta     [1,5]  [i,t]       -0.701
#>  6 theta     [1,6]  [i,t]       -0.756
#>  7 theta     [1,7]  [i,t]       -0.871
#>  8 theta     [1,8]  [i,t]       -0.978
#>  9 theta     [1,9]  [i,t]       -1.07 
#> 10 theta     [1,10] [i,t]       -1.04 
#> # ℹ 7,571 more rows
```
…
# Same alpha and beta estimates!
summary(fit2, parameter = c("alpha", "beta")) |> 
  filter(str_detect(index, "\\[\\d+,1,.+")) |> 
  spread(
    key = "parameter",
    value = "estimate"
  )
#> * Summarizing following parameters: alpha, beta
#> # A tibble: 40 × 4
#>    index     reference alpha  beta
#>    <chr>     <chr>     <dbl> <dbl>
#>  1 [1,1,y1]  [t,j,k]   0.183 0.405
#>  2 [10,1,y1] [t,j,k]   0.183 0.405
#>  3 [11,1,y1] [t,j,k]   0.183 0.405
#>  4 [12,1,y1] [t,j,k]   0.183 0.405
#>  5 [13,1,y1] [t,j,k]   0.183 0.405
#>  6 [14,1,y1] [t,j,k]   0.183 0.405
#>  7 [15,1,y1] [t,j,k]   0.183 0.405
#>  8 [16,1,y1] [t,j,k]   0.183 0.405
#>  9 [17,1,y1] [t,j,k]   0.183 0.405
#> 10 [18,1,y1] [t,j,k]   0.183 0.405
#> # ℹ 30 more rows
```
…
summary(fit_boot, parameter = "theta", ci = 0.95)
#> * Summarizing following parameters:  theta
#> # A tibble: 7,581 × 7
#>    parameter index  reference estimate     sd ci_lwr95 ci_upr95
#>    <chr>     <chr>  <chr>        <dbl>  <dbl>    <dbl>    <dbl>
#>  1 theta     [1,1]  [i,t]       -0.673 0.0436   -0.758   -0.587
#>  2 theta     [1,2]  [i,t]       -0.769 0.0408   -0.849   -0.689
#>  3 theta     [1,3]  [i,t]       -0.675 0.0380   -0.749   -0.600
#>  4 theta     [1,4]  [i,t]       -0.670 0.0453   -0.759   -0.581
#>  5 theta     [1,5]  [i,t]       -0.701 0.0461   -0.792   -0.611
#>  6 theta     [1,6]  [i,t]       -0.756 0.0500   -0.854   -0.658
#>  7 theta     [1,7]  [i,t]       -0.871 0.0517   -0.972   -0.770
#>  8 theta     [1,8]  [i,t]       -0.978 0.0500   -1.08    -0.880
#>  9 theta     [1,9]  [i,t]       -1.07  0.0391   -1.14    -0.991
#> 10 theta     [1,10] [i,t]       -1.04  0.0484   -1.13    -0.945
#> # ℹ 7,571 more rows
```
…
summary(fit_gibbs, parameter = "theta", ci = 0.95)
#> * Summarizing following parameters: theta
#> # A tibble: 7,581 × 9
#>    parameter index  reference   mean median     sd ci_lwr95 ci_upr95  rhat
#>    <chr>     <chr>  <chr>      <dbl>  <dbl>  <dbl>    <dbl>    <dbl> <dbl>
#>  1 theta     [1,1]  [i,t]     -0.608 -0.604 0.0635   -0.739   -0.492 0.994
#>  2 theta     [1,2]  [i,t]     -0.662 -0.671 0.0709   -0.775   -0.522 1.09 
#>  3 theta     [1,3]  [i,t]     -0.572 -0.577 0.0579   -0.673   -0.441 1.01 
#>  4 theta     [1,4]  [i,t]     -0.620 -0.623 0.0904   -0.813   -0.449 1.00 
#>  5 theta     [1,5]  [i,t]     -0.658 -0.659 0.0908   -0.815   -0.476 0.996
#>  6 theta     [1,6]  [i,t]     -0.683 -0.687 0.0498   -0.775   -0.592 0.996
#>  7 theta     [1,7]  [i,t]     -0.739 -0.738 0.0818   -0.866   -0.554 0.997
#>  8 theta     [1,8]  [i,t]     -0.799 -0.806 0.0872   -0.970   -0.612 1.01 
#>  9 theta     [1,9]  [i,t]     -0.854 -0.854 0.0986   -1.06    -0.679 0.993
#> 10 theta     [1,10] [i,t]     -0.908 -0.906 0.0978   -1.08    -0.731 1.03 
#> # ℹ 7,571 more rows
```
…
